version3/CRC8_Encoder/simulation/qsim/CRC8_Encoder.msim.vcd
$comment
	File created using the following command:
		vcd file CRC8_Encoder.msim.vcd -direction
$end
$date
	Tue Dec 01 03:12:10 2020
$end
$version
	ModelSim Version 2020.1
$end
$timescale
	1ps
$end

$scope module crc8_encoder_vhd_vec_tst $end
$var wire 1 ! clk $end
$var wire 1 " dIn $end
$var wire 1 # dOut [7] $end
$var wire 1 $ dOut [6] $end
$var wire 1 % dOut [5] $end
$var wire 1 & dOut [4] $end
$var wire 1 ' dOut [3] $end
$var wire 1 ( dOut [2] $end
$var wire 1 ) dOut [1] $end
$var wire 1 * dOut [0] $end

$scope module i1 $end
$var wire 1 + gnd $end
$var wire 1 , vcc $end
$var wire 1 - unknown $end
$var wire 1 . devoe $end
$var wire 1 / devclrn $end
$var wire 1 0 devpor $end
$var wire 1 1 ww_devoe $end
$var wire 1 2 ww_devclrn $end
$var wire 1 3 ww_devpor $end
$var wire 1 4 ww_clk $end
$var wire 1 5 ww_dIn $end
$var wire 1 6 ww_dOut [7] $end
$var wire 1 7 ww_dOut [6] $end
$var wire 1 8 ww_dOut [5] $end
$var wire 1 9 ww_dOut [4] $end
$var wire 1 : ww_dOut [3] $end
$var wire 1 ; ww_dOut [2] $end
$var wire 1 < ww_dOut [1] $end
$var wire 1 = ww_dOut [0] $end
$var wire 1 > \clk~inputclkctrl_INCLK_bus\ [3] $end
$var wire 1 ? \clk~inputclkctrl_INCLK_bus\ [2] $end
$var wire 1 @ \clk~inputclkctrl_INCLK_bus\ [1] $end
$var wire 1 A \clk~inputclkctrl_INCLK_bus\ [0] $end
$var wire 1 B \dOut[0]~output_o\ $end
$var wire 1 C \dOut[1]~output_o\ $end
$var wire 1 D \dOut[2]~output_o\ $end
$var wire 1 E \dOut[3]~output_o\ $end
$var wire 1 F \dOut[4]~output_o\ $end
$var wire 1 G \dOut[5]~output_o\ $end
$var wire 1 H \dOut[6]~output_o\ $end
$var wire 1 I \dOut[7]~output_o\ $end
$var wire 1 J \clk~input_o\ $end
$var wire 1 K \clk~inputclkctrl_outclk\ $end
$var wire 1 L \dIn~input_o\ $end
$var wire 1 M \lfsr0|comb~0_combout\ $end
$var wire 1 N \lfsr0|dff6|q~q\ $end
$var wire 1 O \lfsr0|comb~1_combout\ $end
$var wire 1 P \lfsr0|dff5|q~q\ $end
$var wire 1 Q \lfsr0|comb~2_combout\ $end
$var wire 1 R \lfsr0|dff4|q~q\ $end
$var wire 1 S \lfsr0|dff3|q~feeder_combout\ $end
$var wire 1 T \lfsr0|dff3|q~q\ $end
$var wire 1 U \lfsr0|comb~3_combout\ $end
$var wire 1 V \lfsr0|dff2|q~q\ $end
$var wire 1 W \lfsr0|dff1|q~feeder_combout\ $end
$var wire 1 X \lfsr0|dff1|q~q\ $end
$var wire 1 Y \lfsr0|dff0|q~feeder_combout\ $end
$var wire 1 Z \lfsr0|dff0|q~q\ $end
$var wire 1 [ \lfsr0|chainXor~combout\ $end
$var wire 1 \ \lfsr0|dff7|q~q\ $end
$upscope $end
$upscope $end
$enddefinitions $end
#0
$dumpvars
0!
0"
0+
1,
x-
1.
1/
10
11
12
13
04
05
0B
0C
0D
0E
0F
0G
0H
0I
0J
0K
0L
0M
0N
0O
0P
0Q
0R
0S
0T
0U
0V
0W
0X
0Y
0Z
0[
0\
0#
0$
0%
0&
0'
0(
0)
0*
06
07
08
09
0:
0;
0<
0=
1>
1?
1@
0A
$end
#20000
1"
15
1L
1M
1O
1Q
1U
1[
#30938
1!
14
1J
1A
1K
1N
1P
1R
1V
1\
0M
1W
1S
0Q
0O
1B
1G
1E
1D
1C
1=
18
1:
1;
1<
1*
1)
1(
1'
1%
#40000
0"
05
0L
1M
1O
1Q
0U
0[
#61875
0!
04
0J
0A
0K
#92813
1!
14
1J
1A
1K
1T
0V
1X
0\
0M
1Y
0W
1U
0B
1H
0G
1F
0=
17
08
19
0*
1&
0%
1$
#123750
0!
04
0J
0A
0K
#140000
1"
15
1L
1M
0O
0Q
0U
1[
#154688
1!
14
1J
1A
1K
0P
0R
0X
1Z
1\
1O
1U
0[
0Y
0S
1B
1I
0H
0E
0D
1=
16
07
0:
0;
1*
0(
0'
0$
1#
#170000
0"
05
0L
0M
0O
1Q
0U
1[
#185625
0!
04
0J
0A
0K
#216563
1!
14
1J
1A
1K
0N
1R
0T
0Z
1M
0Q
0[
1S
0I
0F
1E
0C
06
09
1:
0<
0)
1'
0&
0#
#247500
0!
04
0J
0A
0K
#270000
1"
15
1L
0M
1O
1Q
1U
1[
#278438
1!
14
1J
1A
1K
1P
1T
1V
1W
0U
0Q
1G
1F
1D
18
19
1;
1(
1&
1%
#290000
0"
05
0L
1M
0O
1Q
1U
0[
#309375
0!
04
0J
0A
0K
#340313
1!
14
1J
1A
1K
1N
0P
1X
0\
0M
1Y
0Q
1O
0B
1H
0D
1C
0=
17
0;
1<
0*
1)
0(
1$
#371250
0!
04
0J
0A
0K
#390000
1"
15
1L
1M
0O
1Q
0U
1[
#402188
1!
14
1J
1A
1K
0V
1Z
1\
1O
0Q
1U
0[
0W
1B
1I
0G
1=
16
08
1*
0%
1#
#410000
0"
05
0L
0M
0O
1Q
0U
1[
#433125
0!
04
0J
0A
0K
#464063
1!
14
1J
1A
1K
0N
0X
0Y
1O
0H
0C
07
0<
0)
0$
#495000
0!
04
0J
0A
0K
#520000
1"
15
1L
1M
0O
0Q
1U
0[
#525938
1!
14
1J
1A
1K
1N
0R
1V
0Z
0\
1Q
0U
1[
1W
0S
0B
0I
1G
0E
1C
0=
06
18
0:
1<
0*
1)
0'
1%
0#
#540000
0"
05
0L
0M
1O
0Q
1U
0[
#556875
0!
04
0J
0A
0K
#587813
1!
14
1J
1A
1K
0N
1P
0T
1X
1Y
0U
1Q
0O
1H
0F
1D
0C
17
09
1;
0<
0)
1(
0&
1$
#618750
0!
04
0J
0A
0K
#640000
1"
15
1L
1M
1O
0Q
1U
1[
#649688
1!
14
1J
1A
1K
1N
1Z
1\
1Q
0U
0[
1B
1I
1C
1=
16
1<
1*
1)
1#
#660000
0"
05
0L
0M
0O
0Q
1U
1[
#680625
0!
04
0J
0A
0K
#711563
1!
14
1J
1A
1K
0N
0P
1Q
1O
0D
0C
0;
0<
0)
0(
#742500
0!
04
0J
0A
0K
#760000
1"
15
1L
1M
0O
0Q
0U
0[
#773438
1!
14
1J
1A
1K
1N
0V
0\
0M
0W
1O
0B
0G
1C
0=
08
1<
0*
1)
0%
#790000
0"
05
0L
1M
0O
1Q
1U
1[
#804375
0!
04
0J
0A
0K
#835313
1!
14
1J
1A
1K
1R
1V
0X
1\
0M
0Y
1W
1S
1B
0H
1G
1E
1=
07
18
1:
1*
1'
1%
0$
#866250
0!
04
0J
0A
0K
#890000
1"
15
1L
1M
1O
0Q
0U
0[
#897188
1!
14
1J
1A
1K
1P
0R
1T
0V
1X
0Z
0\
0O
1[
1Y
0W
0S
0B
0I
1H
0G
1F
0E
1D
0=
06
17
08
19
0:
1;
0*
1(
0'
1&
0%
1$
0#
#910000
0"
05
0L
0M
1O
1Q
1U
0[
#928125
0!
04
0J
0A
0K
#959063
1!
14
1J
1A
1K
0N
1R
0T
1V
0X
1Z
1M
0Q
1[
0Y
1W
1S
1I
0H
1G
0F
1E
0C
16
07
18
09
1:
0<
0)
1'
0&
1%
0$
1#
#990000
0!
04
0J
0A
0K
