version2/CRC8_Checker/simulation/qsim/CRC8_Checker.msim.vcd
$comment
	File created using the following command:
		vcd file CRC8_Checker.msim.vcd -direction
$end
$date
	Wed Dec 09 02:28:02 2020
$end
$version
	ModelSim Version 2020.1
$end
$timescale
	1ps
$end

$scope module crc8_checker_vhd_vec_tst $end
$var wire 1 ! clk $end
$var wire 1 " dIn $end
$var wire 1 # error $end
$var wire 1 $ nGRst $end

$scope module i1 $end
$var wire 1 % gnd $end
$var wire 1 & vcc $end
$var wire 1 ' unknown $end
$var wire 1 ( devoe $end
$var wire 1 ) devclrn $end
$var wire 1 * devpor $end
$var wire 1 + ww_devoe $end
$var wire 1 , ww_devclrn $end
$var wire 1 - ww_devpor $end
$var wire 1 . ww_nGRst $end
$var wire 1 / ww_clk $end
$var wire 1 0 ww_dIn $end
$var wire 1 1 ww_error $end
$var wire 1 2 \clk~inputclkctrl_INCLK_bus\ [3] $end
$var wire 1 3 \clk~inputclkctrl_INCLK_bus\ [2] $end
$var wire 1 4 \clk~inputclkctrl_INCLK_bus\ [1] $end
$var wire 1 5 \clk~inputclkctrl_INCLK_bus\ [0] $end
$var wire 1 6 \error~output_o\ $end
$var wire 1 7 \clk~input_o\ $end
$var wire 1 8 \bc|ff0|Q~0_combout\ $end
$var wire 1 9 \nGRst~input_o\ $end
$var wire 1 : \bc|ff1|Q~0_combout\ $end
$var wire 1 ; \bc|ff1|Q~q\ $end
$var wire 1 < \bc|ff2|Q~0_combout\ $end
$var wire 1 = \bc|ff2|Q~q\ $end
$var wire 1 > \bc|ff3|Q~0_combout\ $end
$var wire 1 ? \bc|ff3|Q~q\ $end
$var wire 1 @ \bc|ad3|y~combout\ $end
$var wire 1 A \bc|ff4|Q~0_combout\ $end
$var wire 1 B \bc|ff4|Q~q\ $end
$var wire 1 C \cUnit|nad2|y~0_combout\ $end
$var wire 1 D \cUnit|nad2|y~1_combout\ $end
$var wire 1 E \bc|ff0|Q~q\ $end
$var wire 1 F \cUnit|nord|y~0_combout\ $end
$var wire 1 G \clk~inputclkctrl_outclk\ $end
$var wire 1 H \dIn~input_o\ $end
$var wire 1 I \LFSR|dff1|q~q\ $end
$var wire 1 J \LFSR|dff0|q~feeder_combout\ $end
$var wire 1 K \LFSR|dff0|q~q\ $end
$var wire 1 L \LFSR|xor0|y~combout\ $end
$var wire 1 M \LFSR|dff7|q~q\ $end
$var wire 1 N \LFSR|xor1|y~combout\ $end
$var wire 1 O \LFSR|dff6|q~q\ $end
$var wire 1 P \LFSR|xor2|y~combout\ $end
$var wire 1 Q \LFSR|dff5|q~q\ $end
$var wire 1 R \LFSR|xor3|y~combout\ $end
$var wire 1 S \LFSR|dff4|q~q\ $end
$var wire 1 T \LFSR|dff3|q~feeder_combout\ $end
$var wire 1 U \LFSR|dff3|q~q\ $end
$var wire 1 V \LFSR|xor4|y~combout\ $end
$var wire 1 W \LFSR|dff2|q~q\ $end
$var wire 1 X \OR80|y~1_combout\ $end
$var wire 1 Y \OR80|y~0_combout\ $end
$var wire 1 Z \OR80|y~combout\ $end
$var wire 1 [ \cUnit|nad4|y~0_combout\ $end
$var wire 1 \ \cUnit|nad4|y~1_combout\ $end
$var wire 1 ] \FF0|Q~q\ $end
$var wire 1 ^ \cUnit|nad2|ALT_INV_y~1_combout\ $end
$var wire 1 _ \cUnit|nad4|ALT_INV_y~1_combout\ $end
$var wire 1 ` \FF0|ALT_INV_Q~q\ $end
$upscope $end
$upscope $end
$enddefinitions $end
#0
$dumpvars
0!
0"
1#
0$
0%
1&
x'
1(
1)
1*
1+
1,
1-
0.
0/
00
11
16
07
18
09
0:
0;
0<
0=
0>
0?
0@
0A
0B
0C
0D
0E
0F
0G
0H
0I
0J
0K
0L
0M
0N
0O
0P
0Q
0R
0S
0T
0U
0V
0W
0X
0Y
1Z
0[
0\
0]
1^
1_
1`
12
13
14
05
$end
#19230
1!
1/
17
15
1D
1E
1\
0_
0^
08
1:
1[
1G
0E
18
0:
0[
#38460
0!
0/
07
05
0D
0\
1_
1^
0G
#50000
1$
1"
1.
10
1H
19
1L
1N
1P
1R
1V
#57690
1!
1/
17
15
1E
08
1:
1[
1G
1\
1M
1O
1Q
1S
1W
0_
0Z
1T
0R
0P
1Y
0N
1X
#70000
0"
00
0H
0L
1N
1P
1R
0V
#76920
0!
0/
07
05
0\
1_
0G
#96150
1!
1/
17
15
1;
0E
1\
0_
18
0[
1G
0\
1I
0M
1U
0W
1_
1V
0N
1J
#115380
0!
0/
07
05
0G
#130000
1"
10
1H
1L
1N
0P
0R
0V
#134610
1!
1/
17
15
1E
08
0:
1<
1G
0I
1K
1M
0Q
0S
0T
0L
1P
1V
0J
#150000
0"
00
0H
1L
0N
0P
1R
0V
#153840
0!
0/
07
05
0G
#173070
1!
1/
17
15
0;
1=
0E
18
1G
0K
0O
1S
0U
1T
0L
1N
0R
#192300
0!
0/
07
05
0G
#200000
1"
10
1H
1L
0N
1P
1R
1V
#211530
1!
1/
17
15
1E
08
1:
1G
1Q
1U
1W
0V
0R
#220000
0"
00
0H
0L
1N
0P
1R
1V
#230760
0!
0/
07
05
0G
#249990
1!
1/
17
15
1;
0E
18
1G
1I
0M
1O
0Q
0R
1P
0N
1J
#269220
0!
0/
07
05
0G
#280000
1"
10
1H
1L
1N
0P
1R
0V
#288450
1!
1/
17
15
1E
08
0:
0<
1>
1G
1K
1M
0W
0L
1P
0R
1V
#300000
0"
00
0H
1L
0N
0P
1R
0V
#307680
0!
0/
07
05
0G
#326910
1!
1/
17
15
0;
0=
1?
0E
18
1G
0I
0O
1P
0J
#346140
0!
0/
07
05
0G
#360000
1"
10
1H
0L
1N
0P
0R
1V
#365370
1!
1/
17
15
1E
08
1:
1[
1G
0K
0M
1O
0S
1W
0T
0X
1L
1R
0V
#380000
0"
00
0H
0L
0N
1P
0R
1V
#384600
0!
0/
07
05
0G
#403830
1!
1/
17
15
1;
0E
18
0[
1G
1I
0O
1Q
0U
0V
1R
0P
1J
1X
#423060
0!
0/
07
05
0G
#430000
1"
10
1H
1L
1N
1P
0R
1V
#442290
1!
1/
17
15
1E
08
0:
1<
1G
1K
1M
1O
0L
1R
0V
#450000
0"
00
0H
1L
0N
0P
0R
1V
#461520
0!
0/
07
05
0G
#480750
1!
1/
17
15
0;
1=
0E
18
1G
0O
0Q
1R
1P
#499980
0!
0/
07
05
0G
#510000
1"
10
1H
0L
1N
0P
0R
0V
#519210
1!
1/
17
15
1E
08
1:
1G
0M
1O
0W
1P
0N
#530000
0"
00
0H
1L
1N
0P
1R
1V
#538440
0!
0/
07
05
0G
#557670
1!
1/
17
15
1;
0E
18
1G
0I
1M
1S
1W
1T
0N
0J
#576900
0!
0/
07
05
0G
#590000
1"
10
1H
0L
1N
1P
0R
0V
#596130
1!
1/
17
15
1E
08
0:
0<
0>
1@
1G
1A
1I
0K
0M
1Q
0S
1U
0W
0T
1L
0P
1J
#610000
0"
00
0H
0L
0N
1P
1R
1V
#615360
0!
0/
07
05
0G
#634590
1!
1/
17
15
0;
0=
0?
1B
0E
18
0A
0@
1G
1A
0I
1K
0O
1S
0U
1W
1T
1L
1N
0R
0J
0X
#653820
0!
0/
07
05
0G
#660000
1"
10
1H
0L
0N
0P
1R
0V
#673050
1!
1/
17
15
1E
08
1:
1G
1I
0K
0Q
1U
0W
1L
1N
1P
1J
1X
#680000
0"
00
0H
0L
0N
0P
0R
1V
#692280
0!
0/
07
05
0G
#711510
1!
1/
17
15
1;
0E
18
1G
0I
1K
0S
1W
0T
1L
1N
1P
1R
0V
0J
0X
#730740
0!
0/
07
05
0G
#740000
1"
10
1H
0L
0N
0P
0R
1V
#749970
1!
1/
17
15
1E
08
0:
1<
1G
1I
0K
0U
1L
1N
1P
1R
0Y
1J
1X
#760000
0"
00
0H
0L
0N
0P
0R
0V
#769200
0!
0/
07
05
0G
#788430
1!
1/
17
15
0;
1=
0E
18
1G
1K
0W
1L
1N
1P
1R
1V
1Y
#807660
0!
0/
07
05
0G
#820000
1"
10
1H
0L
0N
0P
0R
0V
#826890
1!
1/
17
15
1E
08
1:
1G
0I
0J
0X
#840000
0"
00
0H
1L
1N
1P
1R
1V
#846120
0!
0/
07
05
0G
#860000
1"
10
1H
0L
0N
0P
0R
0V
#865350
1!
1/
17
15
1;
0E
18
1G
0K
1L
1N
1P
1R
1V
0Y
1Z
#880000
0"
00
0H
0L
0N
0P
0R
0V
#884580
0!
0/
07
05
0G
#903810
1!
1/
17
15
1E
08
0:
0<
1>
1G
#923040
0!
0/
07
05
0G
#942270
1!
1/
17
15
0;
0=
1?
0E
18
1C
1G
#961500
0!
0/
07
05
1F
1]
0G
0`
06
01
0#
#980730
1!
1/
17
15
1E
0F
08
1:
1D
1G
0^
0?
0B
0E
18
0:
0D
0A
0>
0C
1^
#999000
0!
0/
07
05
0G
#1018281
1!
1/
17
15
1E
08
1:
1[
1G
1\
0_
0]
1`
16
11
1#
#1037561
0!
0/
07
05
0\
1_
0G
#1056842
1!
1/
17
15
1;
0E
1\
0_
18
0[
1G
0\
1_
#1076122
0!
0/
07
05
0G
#1095403
1!
1/
17
15
1E
08
0:
1<
1G
#1114683
0!
0/
07
05
0G
#1133964
1!
1/
17
15
0;
1=
0E
18
1G
#1153244
0!
0/
07
05
0G
#1172525
1!
1/
17
15
1E
08
1:
1G
#1191805
0!
0/
07
05
0G
#1211086
1!
1/
17
15
1;
0E
18
1G
#1230366
0!
0/
07
05
0G
#1249647
1!
1/
17
15
1E
08
0:
0<
1>
1G
#1268927
0!
0/
07
05
0G
#1288208
1!
1/
17
15
0;
0=
1?
0E
18
1G
#1307488
0!
0/
07
05
0G
#1326769
1!
1/
17
15
1E
08
1:
1[
1G
#1346049
0!
0/
07
05
0G
#1365330
1!
1/
17
15
1;
0E
18
0[
1G
#1384610
0!
0/
07
05
0G
#1403891
1!
1/
17
15
1E
08
0:
1<
1G
#1423171
0!
0/
07
05
0G
#1442452
1!
1/
17
15
0;
1=
0E
18
1G
#1461732
0!
0/
07
05
0G
#1481013
1!
1/
17
15
1E
08
1:
1G
#1500293
0!
0/
07
05
0G
#1519574
1!
1/
17
15
1;
0E
18
1G
#1538854
0!
0/
07
05
0G
#1558135
1!
1/
17
15
1E
08
0:
0<
0>
1@
1G
1A
#1577415
0!
0/
07
05
0G
#1580000
1"
10
1H
1L
1N
1P
1R
1V
#1596696
1!
1/
17
15
0;
0=
0?
1B
0E
18
0A
0@
1G
1A
1M
1O
1Q
1S
1W
0Z
1T
0R
0P
1Y
0N
1X
#1615976
0!
0/
07
05
0G
#1620000
0"
00
0H
0L
1N
1P
1R
0V
#1635257
1!
1/
17
15
1E
08
1:
1G
1I
0M
1U
0W
1V
0N
1J
#1654537
0!
0/
07
05
0G
#1673818
1!
1/
17
15
1;
0E
18
1G
0I
1K
0O
1W
1L
1N
0R
0V
0J
0X
#1693098
0!
0/
07
05
0G
#1710000
1"
10
1H
0L
0N
0P
1R
1V
#1712379
1!
1/
17
15
1E
08
0:
1<
1G
1I
0K
0Q
1L
1N
1P
0V
1J
1X
#1720000
0"
00
0H
0L
0N
0P
0R
1V
#1731659
0!
0/
07
05
0G
#1750940
1!
1/
17
15
0;
1=
0E
18
1G
1K
0S
0T
1L
1N
1P
1R
0V
#1770220
0!
0/
07
05
0G
#1780000
1"
10
1H
0L
0N
0P
0R
1V
#1789501
1!
1/
17
15
1E
08
1:
1G
0U
0V
#1800000
0"
00
0H
1L
1N
1P
1R
1V
#1808781
0!
0/
07
05
0G
#1820000
1"
10
1H
0L
0N
0P
0R
0V
#1828062
1!
1/
17
15
1;
0E
18
1G
0W
#1840000
0"
00
0H
1L
1N
1P
1R
1V
#1847342
0!
0/
07
05
0G
#1860000
1"
10
1H
0L
0N
0P
0R
0V
#1866623
1!
1/
17
15
1E
08
0:
0<
1>
1G
0I
0J
0X
#1880000
0"
00
0H
1L
1N
1P
1R
1V
#1885903
0!
0/
07
05
0G
#1900000
1"
10
1H
0L
0N
0P
0R
0V
#1905184
1!
1/
17
15
0;
0=
1?
0E
18
1C
1G
0K
1L
1N
1P
1R
1V
0Y
1Z
#1920000
0"
00
0H
0L
0N
0P
0R
0V
#1924464
0!
0/
07
05
1F
1]
0G
0`
06
01
0#
#1943745
1!
1/
17
15
1E
0F
08
1:
1D
1G
0^
0?
0B
0E
18
0:
0D
0A
0>
0C
1^
#1963025
0!
0/
07
05
0G
#1982306
1!
1/
17
15
1E
08
1:
1[
1G
1\
0_
0]
1`
16
11
1#
