version2/CRC8_Checker/simulation/qsim/CRC8_Checker.msim.vcd
$comment
	File created using the following command:
		vcd file CRC8_Checker.msim.vcd -direction
$end
$date
	Mon Dec 07 18:42:42 2020
$end
$version
	ModelSim Version 2020.1
$end
$timescale
	1ps
$end

$scope module crc8_checker_vhd_vec_tst $end
$var wire 1 ! clk $end
$var wire 1 " dIn $end
$var wire 1 # error $end
$var wire 1 $ nGRst $end

$scope module i1 $end
$var wire 1 % gnd $end
$var wire 1 & vcc $end
$var wire 1 ' unknown $end
$var wire 1 ( devoe $end
$var wire 1 ) devclrn $end
$var wire 1 * devpor $end
$var wire 1 + ww_devoe $end
$var wire 1 , ww_devclrn $end
$var wire 1 - ww_devpor $end
$var wire 1 . ww_nGRst $end
$var wire 1 / ww_clk $end
$var wire 1 0 ww_dIn $end
$var wire 1 1 ww_error $end
$var wire 1 2 \error~output_o\ $end
$var wire 1 3 \clk~input_o\ $end
$var wire 1 4 \bc|s_cOut[0]~12_combout\ $end
$var wire 1 5 \nGRst~input_o\ $end
$var wire 1 6 \bc|s_cOut[1]~4_combout\ $end
$var wire 1 7 \bc|s_cOut[1]~5\ $end
$var wire 1 8 \bc|s_cOut[2]~6_combout\ $end
$var wire 1 9 \bc|s_cOut[2]~7\ $end
$var wire 1 : \bc|s_cOut[3]~8_combout\ $end
$var wire 1 ; \bc|s_cOut[3]~9\ $end
$var wire 1 < \bc|s_cOut[4]~10_combout\ $end
$var wire 1 = \cUnit|nad2|y~2_combout\ $end
$var wire 1 > \cUnit|nad2|y~3_combout\ $end
$var wire 1 ? \cUnit|nord|y~0_combout\ $end
$var wire 1 @ \dIn~input_o\ $end
$var wire 1 A \LFSR|comb~0_combout\ $end
$var wire 1 B \LFSR|dff2|q~q\ $end
$var wire 1 C \LFSR|dff1|q~q\ $end
$var wire 1 D \LFSR|dff0|q~q\ $end
$var wire 1 E \LFSR|chainXor~combout\ $end
$var wire 1 F \LFSR|dff7|q~q\ $end
$var wire 1 G \LFSR|comb~1_combout\ $end
$var wire 1 H \LFSR|dff6|q~q\ $end
$var wire 1 I \LFSR|comb~2_combout\ $end
$var wire 1 J \LFSR|dff5|q~q\ $end
$var wire 1 K \LFSR|comb~3_combout\ $end
$var wire 1 L \LFSR|dff4|q~q\ $end
$var wire 1 M \LFSR|dff3|q~q\ $end
$var wire 1 N \comb~0_combout\ $end
$var wire 1 O \comb~1_combout\ $end
$var wire 1 P \comb~2_combout\ $end
$var wire 1 Q \cUnit|nad4|y~3_combout\ $end
$var wire 1 R \cUnit|nad4|y~15_combout\ $end
$var wire 1 S \FF0|Q~q\ $end
$var wire 1 T \bc|s_cOut\ [4] $end
$var wire 1 U \bc|s_cOut\ [3] $end
$var wire 1 V \bc|s_cOut\ [2] $end
$var wire 1 W \bc|s_cOut\ [1] $end
$var wire 1 X \bc|s_cOut\ [0] $end
$var wire 1 Y \cUnit|nad4|ALT_INV_y~15_combout\ $end
$var wire 1 Z \cUnit|nad2|ALT_INV_y~3_combout\ $end
$var wire 1 [ \FF0|ALT_INV_Q~q\ $end
$upscope $end
$upscope $end
$enddefinitions $end
#0
$dumpvars
0!
0"
1#
0$
0%
1&
x'
1(
1)
1*
1+
1,
1-
0.
0/
00
11
12
03
14
05
06
07
08
19
0:
0;
0<
0=
0>
0?
0@
0A
0B
0C
0D
0E
0F
0G
0H
0I
0J
0K
0L
0M
0N
0O
1P
1Q
0R
0S
1Y
1Z
1[
0T
0U
0V
0W
0X
$end
#19230
1!
1/
13
1>
1X
1R
0Y
0Z
04
16
0X
14
06
#38460
0!
0/
03
0>
0R
1Y
1Z
#50000
1$
1"
1.
10
1@
15
1A
1E
1G
1I
1K
#57690
1!
1/
13
1X
1B
1F
1H
1J
1L
0K
0I
1N
0G
1O
0P
04
16
1R
0Y
#70000
0"
00
0@
0A
0E
1G
1I
1K
#76920
0!
0/
03
0R
1Y
#96150
1!
1/
13
1W
0X
0B
1C
0F
1M
1R
0Y
1A
0G
14
0R
0Q
1Y
#115380
0!
0/
03
#130000
1"
10
1@
0A
1E
1G
0I
0K
#134610
1!
1/
13
1X
0C
1D
1F
0J
0L
1A
0E
1I
04
06
17
18
#150000
0"
00
0@
0A
1E
0G
0I
1K
#153840
0!
0/
03
#173070
1!
1/
13
0W
1V
0X
0D
0H
1L
0M
0E
1G
0K
14
08
09
07
18
19
1:
0:
#192300
0!
0/
03
#200000
1"
10
1@
1A
1E
0G
1I
1K
#211530
1!
1/
13
1X
1B
1J
1M
0A
0K
04
16
#220000
0"
00
0@
1A
0E
1G
0I
1K
#230760
0!
0/
03
#249990
1!
1/
13
1W
0X
1C
0F
1H
0J
0K
1I
0G
14
#269220
0!
0/
03
#280000
1"
10
1@
0A
1E
1G
0I
1K
#288450
1!
1/
13
1X
0B
1D
1F
1A
0E
1I
0K
04
06
17
08
09
1:
#300000
0"
00
0@
0A
1E
0G
0I
1K
#307680
0!
0/
03
#326910
1!
1/
13
0W
0V
1U
0X
0C
0H
1I
14
0:
1;
18
19
07
08
1:
0;
1<
0<
#346140
0!
0/
03
#360000
1"
10
1@
1A
0E
1G
0I
0K
#365370
1!
1/
13
1X
1B
0D
0F
1H
0L
0O
0A
1E
1K
04
16
#380000
0"
00
0@
1A
0E
0G
1I
0K
#384600
0!
0/
03
#403830
1!
1/
13
1W
0X
1C
0H
1J
0M
0A
1K
0I
1O
14
#423060
0!
0/
03
#430000
1"
10
1@
1A
1E
1G
1I
0K
#442290
1!
1/
13
1X
1D
1F
1H
0A
0E
1K
04
06
17
18
#450000
0"
00
0@
1A
1E
0G
0I
0K
#461520
0!
0/
03
#480750
1!
1/
13
0W
1V
0X
0H
0J
1K
1I
14
08
09
07
18
19
0:
1;
1<
1:
0;
0<
#499980
0!
0/
03
#510000
1"
10
1@
0A
0E
1G
0I
0K
#519210
1!
1/
13
1X
0B
0F
1H
1I
0G
04
16
#530000
0"
00
0@
1A
1E
1G
0I
1K
#538440
0!
0/
03
#557670
1!
1/
13
1W
0X
1B
0C
1F
1L
0G
14
#576900
0!
0/
03
#590000
1"
10
1@
0A
0E
1G
1I
0K
#596130
1!
1/
13
1X
0B
1C
0D
0F
1J
0L
1M
1E
0I
04
06
17
08
09
0:
1;
1<
#610000
0"
00
0@
1A
0E
0G
1I
1K
#615360
0!
0/
03
#634590
1!
1/
13
0W
0V
0U
1T
0X
1B
0C
1D
0H
1L
0M
1E
1G
0K
0O
14
0<
1:
0;
18
19
07
08
0:
1<
#653820
0!
0/
03
#660000
1"
10
1@
0A
0E
0G
0I
1K
#673050
1!
1/
13
1X
0B
1C
0D
0J
1M
1E
1G
1I
1O
04
16
#680000
0"
00
0@
1A
0E
0G
0I
0K
#692280
0!
0/
03
#711510
1!
1/
13
1W
0X
1B
0C
1D
0L
0A
1E
1G
1I
1K
0O
14
#730740
0!
0/
03
#740000
1"
10
1@
1A
0E
0G
0I
0K
#749970
1!
1/
13
1X
1C
0D
0M
1E
1G
1I
1K
0N
1O
04
06
17
18
#760000
0"
00
0@
0A
0E
0G
0I
0K
#769200
0!
0/
03
#788430
1!
1/
13
0W
1V
0X
0B
1D
1A
1E
1G
1I
1K
1N
14
08
09
07
18
19
1:
0:
#807660
0!
0/
03
#820000
1"
10
1@
0A
0E
0G
0I
0K
#826890
1!
1/
13
1X
0C
0O
04
16
#840000
0"
00
0@
1A
1E
1G
1I
1K
#846120
0!
0/
03
#860000
1"
10
1@
0A
0E
0G
0I
0K
#865350
1!
1/
13
1W
0X
0D
1A
1E
1G
1I
1K
0N
14
1P
#880000
0"
00
0@
0A
0E
0G
0I
0K
#884580
0!
0/
03
#903810
1!
1/
13
1X
04
06
17
08
09
1:
#923040
0!
0/
03
#942270
1!
1/
13
0W
0V
1U
0X
14
0:
1;
18
19
07
1=
08
1:
0;
0<
1<
#961500
0!
0/
03
1?
1S
0[
02
01
0#
#980730
1!
1/
13
1X
0?
04
16
1>
0Z
0U
0T
0X
14
06
0>
0<
0:
0=
1Q
1Z
#999000
0!
0/
03
#1018281
1!
1/
13
1X
04
16
1R
0Y
0S
1[
12
11
1#
#1037561
0!
0/
03
0R
1Y
#1056842
1!
1/
13
1W
0X
1R
0Y
14
0R
0Q
1Y
#1076122
0!
0/
03
#1095403
1!
1/
13
1X
04
06
17
18
#1114683
0!
0/
03
#1133964
1!
1/
13
0W
1V
0X
14
08
09
07
18
19
1:
0:
#1153244
0!
0/
03
#1172525
1!
1/
13
1X
04
16
#1191805
0!
0/
03
#1211086
1!
1/
13
1W
0X
14
#1230366
0!
0/
03
#1249647
1!
1/
13
1X
04
06
17
08
09
1:
#1268927
0!
0/
03
#1288208
1!
1/
13
0W
0V
1U
0X
14
0:
1;
18
19
07
08
1:
0;
1<
0<
#1307488
0!
0/
03
#1326769
1!
1/
13
1X
04
16
#1346049
0!
0/
03
#1365330
1!
1/
13
1W
0X
14
#1384610
0!
0/
03
#1403891
1!
1/
13
1X
04
06
17
18
#1423171
0!
0/
03
#1442452
1!
1/
13
0W
1V
0X
14
08
09
07
18
19
0:
1;
1<
1:
0;
0<
#1461732
0!
0/
03
#1481013
1!
1/
13
1X
04
16
#1500293
0!
0/
03
#1519574
1!
1/
13
1W
0X
14
#1538854
0!
0/
03
#1558135
1!
1/
13
1X
04
06
17
08
09
0:
1;
1<
#1577415
0!
0/
03
#1580000
1"
10
1@
1A
1E
1G
1I
1K
#1596696
1!
1/
13
0W
0V
0U
1T
0X
1B
1F
1H
1J
1L
0K
0I
1N
0G
1O
0P
14
0<
1:
0;
18
19
07
08
0:
1<
#1615976
0!
0/
03
#1620000
0"
00
0@
0A
0E
1G
1I
1K
#1635257
1!
1/
13
1X
0B
1C
0F
1M
1A
0G
04
16
#1654537
0!
0/
03
#1673818
1!
1/
13
1W
0X
1B
0C
1D
0H
0A
1E
1G
0K
0O
14
#1693098
0!
0/
03
#1710000
1"
10
1@
1A
0E
0G
0I
1K
#1712379
1!
1/
13
1X
1C
0D
0J
0A
1E
1G
1I
1O
04
06
17
18
#1720000
0"
00
0@
1A
0E
0G
0I
0K
#1731659
0!
0/
03
#1750940
1!
1/
13
0W
1V
0X
1D
0L
0A
1E
1G
1I
1K
14
08
09
07
18
19
1:
0:
#1770220
0!
0/
03
#1780000
1"
10
1@
1A
0E
0G
0I
0K
#1789501
1!
1/
13
1X
0M
0A
04
16
#1800000
0"
00
0@
1A
1E
1G
1I
1K
#1808781
0!
0/
03
#1820000
1"
10
1@
0A
0E
0G
0I
0K
#1828062
1!
1/
13
1W
0X
0B
14
#1840000
0"
00
0@
1A
1E
1G
1I
1K
#1847342
0!
0/
03
#1860000
1"
10
1@
0A
0E
0G
0I
0K
#1866623
1!
1/
13
1X
0C
0O
04
06
17
08
09
1:
#1880000
0"
00
0@
1A
1E
1G
1I
1K
#1885903
0!
0/
03
#1900000
1"
10
1@
0A
0E
0G
0I
0K
#1905184
1!
1/
13
0W
0V
1U
0X
0D
1A
1E
1G
1I
1K
0N
14
0:
1;
18
19
07
1=
08
1:
0;
0<
1P
1<
#1920000
0"
00
0@
0A
0E
0G
0I
0K
#1924464
0!
0/
03
1?
1S
0[
02
01
0#
#1943745
1!
1/
13
1X
0?
04
16
1>
0Z
0U
0T
0X
14
06
0>
0<
0:
0=
1Q
1Z
#1963025
0!
0/
03
#1982306
1!
1/
13
1X
04
16
1R
0Y
0S
1[
12
11
1#
