version2/CRC8_Checker/simulation/qsim/CRC8_Checker.msim.vcd
$comment
	File created using the following command:
		vcd file CRC8_Checker.msim.vcd -direction
$end
$date
	Tue Dec 08 16:24:14 2020
$end
$version
	ModelSim Version 2020.1
$end
$timescale
	1ps
$end

$scope module crc8_checker_vhd_vec_tst $end
$var wire 1 ! clk $end
$var wire 1 " dIn $end
$var wire 1 # error $end
$var wire 1 $ nGRst $end

$scope module i1 $end
$var wire 1 % gnd $end
$var wire 1 & vcc $end
$var wire 1 ' unknown $end
$var wire 1 ( devoe $end
$var wire 1 ) devclrn $end
$var wire 1 * devpor $end
$var wire 1 + ww_devoe $end
$var wire 1 , ww_devclrn $end
$var wire 1 - ww_devpor $end
$var wire 1 . ww_nGRst $end
$var wire 1 / ww_clk $end
$var wire 1 0 ww_dIn $end
$var wire 1 1 ww_error $end
$var wire 1 2 \clk~inputclkctrl_INCLK_bus\ [3] $end
$var wire 1 3 \clk~inputclkctrl_INCLK_bus\ [2] $end
$var wire 1 4 \clk~inputclkctrl_INCLK_bus\ [1] $end
$var wire 1 5 \clk~inputclkctrl_INCLK_bus\ [0] $end
$var wire 1 6 \error~output_o\ $end
$var wire 1 7 \clk~input_o\ $end
$var wire 1 8 \bc|s_cOut[0]~12_combout\ $end
$var wire 1 9 \nGRst~input_o\ $end
$var wire 1 : \cUnit|nad2|y~3_combout\ $end
$var wire 1 ; \bc|s_cOut[1]~4_combout\ $end
$var wire 1 < \bc|s_cOut[1]~5\ $end
$var wire 1 = \bc|s_cOut[2]~6_combout\ $end
$var wire 1 > \bc|s_cOut[2]~7\ $end
$var wire 1 ? \bc|s_cOut[3]~8_combout\ $end
$var wire 1 @ \bc|s_cOut[3]~9\ $end
$var wire 1 A \bc|s_cOut[4]~10_combout\ $end
$var wire 1 B \cUnit|nad2|y~2_combout\ $end
$var wire 1 C \cUnit|nord|y~0_combout\ $end
$var wire 1 D \clk~inputclkctrl_outclk\ $end
$var wire 1 E \dIn~input_o\ $end
$var wire 1 F \LFSR|comb~0_combout\ $end
$var wire 1 G \LFSR|dff2|q~q\ $end
$var wire 1 H \LFSR|dff1|q~q\ $end
$var wire 1 I \LFSR|dff0|q~feeder_combout\ $end
$var wire 1 J \LFSR|dff0|q~q\ $end
$var wire 1 K \LFSR|chainXor~combout\ $end
$var wire 1 L \LFSR|dff7|q~q\ $end
$var wire 1 M \LFSR|comb~1_combout\ $end
$var wire 1 N \LFSR|dff6|q~q\ $end
$var wire 1 O \LFSR|comb~2_combout\ $end
$var wire 1 P \LFSR|dff5|q~q\ $end
$var wire 1 Q \LFSR|comb~3_combout\ $end
$var wire 1 R \LFSR|dff4|q~q\ $end
$var wire 1 S \LFSR|dff3|q~feeder_combout\ $end
$var wire 1 T \LFSR|dff3|q~q\ $end
$var wire 1 U \OR80|y~1_combout\ $end
$var wire 1 V \OR80|y~0_combout\ $end
$var wire 1 W \OR80|y~combout\ $end
$var wire 1 X \cUnit|nad4|y~3_combout\ $end
$var wire 1 Y \cUnit|nad4|y~15_combout\ $end
$var wire 1 Z \FF0|Q~q\ $end
$var wire 1 [ \bc|s_cOut\ [4] $end
$var wire 1 \ \bc|s_cOut\ [3] $end
$var wire 1 ] \bc|s_cOut\ [2] $end
$var wire 1 ^ \bc|s_cOut\ [1] $end
$var wire 1 _ \bc|s_cOut\ [0] $end
$var wire 1 ` \cUnit|nad4|ALT_INV_y~15_combout\ $end
$var wire 1 a \cUnit|nad2|ALT_INV_y~3_combout\ $end
$var wire 1 b \FF0|ALT_INV_Q~q\ $end
$upscope $end
$upscope $end
$enddefinitions $end
#0
$dumpvars
0!
0"
1#
0$
0%
1&
x'
1(
1)
1*
1+
1,
1-
0.
0/
00
11
16
07
18
09
0:
0;
0<
0=
1>
0?
0@
0A
0B
0C
0D
0E
0F
0G
0H
0I
0J
0K
0L
0M
0N
0O
0P
0Q
0R
0S
0T
1U
0V
1W
1X
0Y
0Z
1`
1a
1b
0[
0\
0]
0^
0_
12
13
14
05
$end
#19230
1!
1/
17
15
1:
1_
1Y
0`
0a
08
1;
1D
0_
18
0;
#38460
0!
0/
07
05
0:
0Y
1`
1a
0D
#50000
1$
1"
1.
10
1E
19
1F
1K
1M
1O
1Q
#57690
1!
1/
17
15
1_
08
1;
1Y
1D
0`
1G
1L
1N
1P
1R
1S
0Q
0O
1V
0M
0U
0W
#70000
0"
00
0E
0F
0K
1M
1O
1Q
#76920
0!
0/
07
05
0Y
1`
0D
#96150
1!
1/
17
15
0_
1^
1Y
0`
0X
18
0Y
1D
1`
0G
1H
0L
1T
1F
0M
1I
#115380
0!
0/
07
05
0D
#130000
1"
10
1E
0F
1K
1M
0O
0Q
#134610
1!
1/
17
15
1_
08
0;
1<
1D
1=
0H
1J
1L
0P
0R
0S
1F
0K
1O
0V
0I
1W
#150000
0"
00
0E
0F
1K
0M
0O
1Q
#153840
0!
0/
07
05
0D
#173070
1!
1/
17
15
0_
0^
1]
0=
0>
18
0<
1D
1=
1>
1?
0J
0N
1R
0T
0?
0W
1S
0K
1M
0Q
1V
1W
#192300
0!
0/
07
05
0D
#200000
1"
10
1E
1F
1K
0M
1O
1Q
#211530
1!
1/
17
15
1_
08
1;
1D
1G
1P
1T
0F
0Q
0V
0W
#220000
0"
00
0E
1F
0K
1M
0O
1Q
#230760
0!
0/
07
05
0D
#249990
1!
1/
17
15
0_
1^
18
1D
1H
0L
1N
0P
0Q
1O
0M
1I
#269220
0!
0/
07
05
0D
#280000
1"
10
1E
0F
1K
1M
0O
1Q
#288450
1!
1/
17
15
1_
08
0;
1<
1D
0=
0>
0G
1J
1L
1?
1U
1F
0K
1O
0Q
1V
1W
#300000
0"
00
0E
0F
1K
0M
0O
1Q
#307680
0!
0/
07
05
0D
#326910
1!
1/
17
15
0_
0^
0]
1\
0?
1@
1=
1>
18
0<
1D
0=
1?
0@
1A
0H
0N
0A
1O
0V
0I
0U
#346140
0!
0/
07
05
0D
#360000
1"
10
1E
1F
0K
1M
0O
0Q
#365370
1!
1/
17
15
1_
08
1;
1D
1G
0J
0L
1N
0R
0S
1U
0F
1K
1Q
1V
0W
#380000
0"
00
0E
1F
0K
0M
1O
0Q
#384600
0!
0/
07
05
0D
#403830
1!
1/
17
15
0_
1^
18
1D
1H
0N
1P
0T
0F
1W
1Q
0O
1I
0U
0W
#423060
0!
0/
07
05
0D
#430000
1"
10
1E
1F
1K
1M
1O
0Q
#442290
1!
1/
17
15
1_
08
0;
1<
1D
1=
1J
1L
1N
1U
0F
0K
1Q
1W
#450000
0"
00
0E
1F
1K
0M
0O
0Q
#461520
0!
0/
07
05
0D
#480750
1!
1/
17
15
0_
0^
1]
0=
0>
18
0<
1D
1=
1>
0?
1@
0N
0P
1A
1?
0@
1Q
1O
0A
#499980
0!
0/
07
05
0D
#510000
1"
10
1E
0F
0K
1M
0O
0Q
#519210
1!
1/
17
15
1_
08
1;
1D
0G
0L
1N
1O
0V
0M
0U
0W
#530000
0"
00
0E
1F
1K
1M
0O
1Q
#538440
0!
0/
07
05
0D
#557670
1!
1/
17
15
0_
1^
18
1D
1G
0H
1L
1R
1S
1V
0M
0I
1W
0W
#576900
0!
0/
07
05
0D
#590000
1"
10
1E
0F
0K
1M
1O
0Q
#596130
1!
1/
17
15
1_
08
0;
1<
1D
0=
0>
0G
1H
0J
0L
1P
0R
1T
0?
1@
0S
1K
0O
0V
1I
1A
1W
#610000
0"
00
0E
1F
0K
0M
1O
1Q
#615360
0!
0/
07
05
0D
#634590
1!
1/
17
15
0_
0^
0]
0\
1[
0A
1?
0@
1=
1>
18
0<
1D
0=
0?
1A
1G
0H
1J
0N
1R
0T
1S
1K
1M
0Q
1V
0I
1U
#653820
0!
0/
07
05
0D
#660000
1"
10
1E
0F
0K
0M
0O
1Q
#673050
1!
1/
17
15
1_
08
1;
1D
0G
1H
0J
0P
1T
1K
1M
1O
1I
0U
0W
#680000
0"
00
0E
1F
0K
0M
0O
0Q
#692280
0!
0/
07
05
0D
#711510
1!
1/
17
15
0_
1^
18
1D
1G
0H
1J
0R
0S
0F
1K
1M
1O
1Q
0I
1U
1W
0W
#730740
0!
0/
07
05
0D
#740000
1"
10
1E
1F
0K
0M
0O
0Q
#749970
1!
1/
17
15
1_
08
0;
1<
1D
1=
1H
0J
0T
1W
1K
1M
1O
1Q
0V
1I
0U
#760000
0"
00
0E
0F
0K
0M
0O
0Q
#769200
0!
0/
07
05
0D
#788430
1!
1/
17
15
0_
0^
1]
0=
0>
18
0<
1D
1=
1>
1?
0G
1J
0?
1F
1K
1M
1O
1Q
1V
0W
1W
#807660
0!
0/
07
05
0D
#820000
1"
10
1E
0F
0K
0M
0O
0Q
#826890
1!
1/
17
15
1_
08
1;
1D
0H
0I
1U
0W
#840000
0"
00
0E
1F
1K
1M
1O
1Q
#846120
0!
0/
07
05
0D
#860000
1"
10
1E
0F
0K
0M
0O
0Q
#865350
1!
1/
17
15
0_
1^
18
1D
0J
1F
1K
1M
1O
1Q
0V
1W
#880000
0"
00
0E
0F
0K
0M
0O
0Q
#884580
0!
0/
07
05
0D
#903810
1!
1/
17
15
1_
08
0;
1<
1D
0=
0>
1?
#923040
0!
0/
07
05
0D
#942270
1!
1/
17
15
0_
0^
0]
1\
0?
1@
1=
1>
1B
18
0<
1D
0=
1?
0@
0A
1A
#961500
0!
0/
07
05
1C
1Z
0D
0b
06
01
0#
#980730
1!
1/
17
15
1_
0C
08
1:
1;
1D
0a
0_
0\
0[
0A
0?
0B
1X
18
0:
0;
1a
#999000
0!
0/
07
05
0D
#1018281
1!
1/
17
15
1_
08
1;
1Y
1D
0`
0Z
1b
16
11
1#
#1037561
0!
0/
07
05
0Y
1`
0D
#1056842
1!
1/
17
15
0_
1^
1Y
0`
0X
18
0Y
1D
1`
#1076122
0!
0/
07
05
0D
#1095403
1!
1/
17
15
1_
08
0;
1<
1D
1=
#1114683
0!
0/
07
05
0D
#1133964
1!
1/
17
15
0_
0^
1]
0=
0>
18
0<
1D
1=
1>
1?
0?
#1153244
0!
0/
07
05
0D
#1172525
1!
1/
17
15
1_
08
1;
1D
#1191805
0!
0/
07
05
0D
#1211086
1!
1/
17
15
0_
1^
18
1D
#1230366
0!
0/
07
05
0D
#1249647
1!
1/
17
15
1_
08
0;
1<
1D
0=
0>
1?
#1268927
0!
0/
07
05
0D
#1288208
1!
1/
17
15
0_
0^
0]
1\
0?
1@
1=
1>
18
0<
1D
0=
1?
0@
1A
0A
#1307488
0!
0/
07
05
0D
#1326769
1!
1/
17
15
1_
08
1;
1D
#1346049
0!
0/
07
05
0D
#1365330
1!
1/
17
15
0_
1^
18
1D
#1384610
0!
0/
07
05
0D
#1403891
1!
1/
17
15
1_
08
0;
1<
1D
1=
#1423171
0!
0/
07
05
0D
#1442452
1!
1/
17
15
0_
0^
1]
0=
0>
18
0<
1D
1=
1>
0?
1@
1A
1?
0@
0A
#1461732
0!
0/
07
05
0D
#1481013
1!
1/
17
15
1_
08
1;
1D
#1500293
0!
0/
07
05
0D
#1519574
1!
1/
17
15
0_
1^
18
1D
#1538854
0!
0/
07
05
0D
#1558135
1!
1/
17
15
1_
08
0;
1<
1D
0=
0>
0?
1@
1A
#1577415
0!
0/
07
05
0D
#1580000
1"
10
1E
1F
1K
1M
1O
1Q
#1596696
1!
1/
17
15
0_
0^
0]
0\
1[
0A
1?
0@
1=
1>
18
0<
1D
0=
0?
1A
1G
1L
1N
1P
1R
1S
0Q
0O
1V
0M
0U
0W
#1615976
0!
0/
07
05
0D
#1620000
0"
00
0E
0F
0K
1M
1O
1Q
#1635257
1!
1/
17
15
1_
08
1;
1D
0G
1H
0L
1T
1F
0M
1I
#1654537
0!
0/
07
05
0D
#1673818
1!
1/
17
15
0_
1^
18
1D
1G
0H
1J
0N
0F
1K
1M
0Q
0I
1U
1W
0W
#1693098
0!
0/
07
05
0D
#1710000
1"
10
1E
1F
0K
0M
0O
1Q
#1712379
1!
1/
17
15
1_
08
0;
1<
1D
1=
1H
0J
0P
0F
1K
1M
1O
1I
0U
1W
#1720000
0"
00
0E
1F
0K
0M
0O
0Q
#1731659
0!
0/
07
05
0D
#1750940
1!
1/
17
15
0_
0^
1]
0=
0>
18
0<
1D
1=
1>
1?
1J
0R
0?
0S
0F
1K
1M
1O
1Q
#1770220
0!
0/
07
05
0D
#1780000
1"
10
1E
1F
0K
0M
0O
0Q
#1789501
1!
1/
17
15
1_
08
1;
1D
0T
0F
0W
#1800000
0"
00
0E
1F
1K
1M
1O
1Q
#1808781
0!
0/
07
05
0D
#1820000
1"
10
1E
0F
0K
0M
0O
0Q
#1828062
1!
1/
17
15
0_
1^
18
1D
0G
1W
#1840000
0"
00
0E
1F
1K
1M
1O
1Q
#1847342
0!
0/
07
05
0D
#1860000
1"
10
1E
0F
0K
0M
0O
0Q
#1866623
1!
1/
17
15
1_
08
0;
1<
1D
0=
0>
0H
1?
0I
1U
0W
#1880000
0"
00
0E
1F
1K
1M
1O
1Q
#1885903
0!
0/
07
05
0D
#1900000
1"
10
1E
0F
0K
0M
0O
0Q
#1905184
1!
1/
17
15
0_
0^
0]
1\
0?
1@
1=
1>
1B
18
0<
1D
0=
1?
0@
0A
0J
1A
1F
1K
1M
1O
1Q
0V
1W
#1920000
0"
00
0E
0F
0K
0M
0O
0Q
#1924464
0!
0/
07
05
1C
1Z
0D
0b
06
01
0#
#1943745
1!
1/
17
15
1_
0C
08
1:
1;
1D
0a
0_
0\
0[
0A
0?
0B
1X
18
0:
0;
1a
#1963025
0!
0/
07
05
0D
#1982306
1!
1/
17
15
1_
08
1;
1Y
1D
0`
0Z
1b
16
11
1#
