version2/CRC8_Checker/simulation/qsim/CRC8_Checker.msim.vcd
$comment
	File created using the following command:
		vcd file CRC8_Checker.msim.vcd -direction
$end
$date
	Tue Dec 01 18:00:12 2020
$end
$version
	ModelSim Version 2020.1
$end
$timescale
	1ps
$end

$scope module crc8_checker_vhd_vec_tst $end
$var wire 1 ! clk $end
$var wire 1 " dIn $end
$var wire 1 # dOut [7] $end
$var wire 1 $ dOut [6] $end
$var wire 1 % dOut [5] $end
$var wire 1 & dOut [4] $end
$var wire 1 ' dOut [3] $end
$var wire 1 ( dOut [2] $end
$var wire 1 ) dOut [1] $end
$var wire 1 * dOut [0] $end
$var wire 1 + error $end
$var wire 1 , nGRst $end

$scope module i1 $end
$var wire 1 - gnd $end
$var wire 1 . vcc $end
$var wire 1 / unknown $end
$var wire 1 0 devoe $end
$var wire 1 1 devclrn $end
$var wire 1 2 devpor $end
$var wire 1 3 ww_devoe $end
$var wire 1 4 ww_devclrn $end
$var wire 1 5 ww_devpor $end
$var wire 1 6 ww_nGRst $end
$var wire 1 7 ww_clk $end
$var wire 1 8 ww_dIn $end
$var wire 1 9 ww_dOut [7] $end
$var wire 1 : ww_dOut [6] $end
$var wire 1 ; ww_dOut [5] $end
$var wire 1 < ww_dOut [4] $end
$var wire 1 = ww_dOut [3] $end
$var wire 1 > ww_dOut [2] $end
$var wire 1 ? ww_dOut [1] $end
$var wire 1 @ ww_dOut [0] $end
$var wire 1 A ww_error $end
$var wire 1 B \clk~inputclkctrl_INCLK_bus\ [3] $end
$var wire 1 C \clk~inputclkctrl_INCLK_bus\ [2] $end
$var wire 1 D \clk~inputclkctrl_INCLK_bus\ [1] $end
$var wire 1 E \clk~inputclkctrl_INCLK_bus\ [0] $end
$var wire 1 F \dOut[0]~output_o\ $end
$var wire 1 G \dOut[1]~output_o\ $end
$var wire 1 H \dOut[2]~output_o\ $end
$var wire 1 I \dOut[3]~output_o\ $end
$var wire 1 J \dOut[4]~output_o\ $end
$var wire 1 K \dOut[5]~output_o\ $end
$var wire 1 L \dOut[6]~output_o\ $end
$var wire 1 M \dOut[7]~output_o\ $end
$var wire 1 N \error~output_o\ $end
$var wire 1 O \clk~input_o\ $end
$var wire 1 P \clk~inputclkctrl_outclk\ $end
$var wire 1 Q \dIn~input_o\ $end
$var wire 1 R \LFSR|comb~0_combout\ $end
$var wire 1 S \bc|s_cOut[0]~12_combout\ $end
$var wire 1 T \nGRst~input_o\ $end
$var wire 1 U \bc|s_cOut[1]~4_combout\ $end
$var wire 1 V \bc|s_cOut[1]~5\ $end
$var wire 1 W \bc|s_cOut[2]~6_combout\ $end
$var wire 1 X \bc|s_cOut[2]~7\ $end
$var wire 1 Y \bc|s_cOut[3]~8_combout\ $end
$var wire 1 Z \bc|s_cOut[3]~9\ $end
$var wire 1 [ \bc|s_cOut[4]~10_combout\ $end
$var wire 1 \ \cUnit|nad2|y~0_combout\ $end
$var wire 1 ] \cUnit|nad2|y~1_combout\ $end
$var wire 1 ^ \LFSR|dff6|q~q\ $end
$var wire 1 _ \LFSR|comb~1_combout\ $end
$var wire 1 ` \LFSR|dff5|q~q\ $end
$var wire 1 a \LFSR|comb~2_combout\ $end
$var wire 1 b \LFSR|dff4|q~q\ $end
$var wire 1 c \LFSR|dff3|q~feeder_combout\ $end
$var wire 1 d \LFSR|dff3|q~q\ $end
$var wire 1 e \LFSR|comb~3_combout\ $end
$var wire 1 f \LFSR|dff2|q~q\ $end
$var wire 1 g \LFSR|dff1|q~feeder_combout\ $end
$var wire 1 h \LFSR|dff1|q~q\ $end
$var wire 1 i \LFSR|dff0|q~feeder_combout\ $end
$var wire 1 j \LFSR|dff0|q~q\ $end
$var wire 1 k \LFSR|chainXor~combout\ $end
$var wire 1 l \LFSR|dff7|q~q\ $end
$var wire 1 m \cUnit|nord|y~0_combout\ $end
$var wire 1 n \comb~1_combout\ $end
$var wire 1 o \comb~0_combout\ $end
$var wire 1 p \comb~2_combout\ $end
$var wire 1 q \cUnit|nad4|y~0_combout\ $end
$var wire 1 r \cUnit|nad4|y~1_combout\ $end
$var wire 1 s \FF0|Q~q\ $end
$var wire 1 t \bc|s_cOut\ [4] $end
$var wire 1 u \bc|s_cOut\ [3] $end
$var wire 1 v \bc|s_cOut\ [2] $end
$var wire 1 w \bc|s_cOut\ [1] $end
$var wire 1 x \bc|s_cOut\ [0] $end
$var wire 1 y \cUnit|nad4|ALT_INV_y~1_combout\ $end
$var wire 1 z \cUnit|nad2|ALT_INV_y~1_combout\ $end
$var wire 1 { \FF0|ALT_INV_Q~q\ $end
$upscope $end
$upscope $end
$enddefinitions $end
#0
$dumpvars
0!
0"
1+
0,
0-
1.
x/
10
11
12
13
14
15
06
07
08
1A
0F
0G
0H
0I
0J
0K
0L
0M
1N
0O
0P
0Q
0R
1S
0T
0U
0V
0W
1X
0Y
0Z
0[
0\
0]
0^
0_
0`
0a
0b
0c
0d
0e
0f
0g
0h
0i
0j
0k
0l
0m
0n
0o
1p
1q
0r
0s
1y
1z
1{
09
0:
0;
0<
0=
0>
0?
0@
0t
0u
0v
0w
0x
1B
1C
1D
0E
0#
0$
0%
0&
0'
0(
0)
0*
$end
#19230
1!
17
1O
1E
1x
1]
1r
0y
0z
0S
1U
1P
0x
1S
0U
#38460
0!
07
0O
0E
0]
0r
1y
1z
0P
#50000
1"
1,
18
16
1T
1Q
1R
1_
1a
1e
1k
#57690
1!
17
1O
1E
1x
1r
0y
0S
1U
1P
1^
1`
1b
1f
1l
0R
1g
1n
1c
0a
0_
1o
0p
1F
1K
1I
1H
1G
1@
1;
1=
1>
1?
1*
1)
1(
1'
1%
#70000
0"
08
0Q
1R
1_
1a
0e
0k
#76920
0!
07
0O
0E
0r
1y
0P
#96150
1!
17
1O
1E
0x
1w
1r
0y
0q
1S
1P
0r
1d
0f
1h
0l
1y
0R
1i
0g
1e
0F
1L
0K
1J
0@
1:
0;
1<
0*
1&
0%
1$
#115380
0!
07
0O
0E
0P
#130000
1"
18
1Q
1R
0_
0a
0e
1k
#134610
1!
17
1O
1E
1x
0S
0U
1V
1P
1W
0`
0b
0h
1j
1l
1_
1e
0k
0i
0c
1F
1M
0L
0I
0H
1@
19
0:
0=
0>
1*
0(
0'
0$
1#
#150000
0"
08
0Q
0R
0_
1a
0e
1k
#153840
0!
07
0O
0E
0P
#173070
1!
17
1O
1E
0x
0w
1v
0W
0X
1S
0V
1P
1W
1X
1Y
0^
1b
0d
0j
0Y
1R
0a
0k
0n
1c
0M
0J
1I
0G
09
0<
1=
0?
0)
1'
0&
0#
#192300
0!
07
0O
0E
0P
#200000
1"
18
1Q
0R
1_
1a
1e
1k
#211530
1!
17
1O
1E
1x
0S
1U
1P
1`
1d
1f
1g
0e
1n
0a
1K
1J
1H
1;
1<
1>
1(
1&
1%
#220000
0"
08
0Q
1R
0_
1a
1e
0k
#230760
0!
07
0O
0E
0P
#249990
1!
17
1O
1E
0x
1w
1S
1P
1^
0`
1h
0l
0R
1i
0a
1_
0F
1L
0H
1G
0@
1:
0>
1?
0*
1)
0(
1$
#269220
0!
07
0O
0E
0P
#280000
1"
18
1Q
1R
0_
1a
0e
1k
#288450
1!
17
1O
1E
1x
0S
0U
1V
1P
0W
0X
0f
1j
1l
1Y
1_
0a
1e
0k
0g
1F
1M
0K
1@
19
0;
1*
0%
1#
#300000
0"
08
0Q
0R
0_
1a
0e
1k
#307680
0!
07
0O
0E
0P
#326910
1!
17
1O
1E
0x
0w
0v
1u
0Y
1Z
1W
1X
1S
0V
1P
0W
1Y
0Z
1[
0^
0h
0[
0i
1_
0L
0G
0:
0?
0)
0$
#346140
0!
07
0O
0E
0P
#360000
1"
18
1Q
1R
0_
0a
1e
0k
#365370
1!
17
1O
1E
1x
0S
1U
1P
1^
0b
1f
0j
0l
1a
0e
1k
1g
0c
0F
0M
1K
0I
1G
0@
09
1;
0=
1?
0*
1)
0'
1%
0#
#380000
0"
08
0Q
0R
1_
0a
1e
0k
#384600
0!
07
0O
0E
0P
#403830
1!
17
1O
1E
0x
1w
1S
1P
0^
1`
0d
1h
1i
0e
1a
0_
1L
0J
1H
0G
1:
0<
1>
0?
0)
1(
0&
1$
#423060
0!
07
0O
0E
0P
#430000
1"
18
1Q
1R
1_
0a
1e
1k
#442290
1!
17
1O
1E
1x
0S
0U
1V
1P
1W
1^
1j
1l
1a
0e
0k
1F
1M
1G
1@
19
1?
1*
1)
1#
#450000
0"
08
0Q
0R
0_
0a
1e
1k
#461520
0!
07
0O
0E
0P
#480750
1!
17
1O
1E
0x
0w
1v
0W
0X
1S
0V
1P
1W
1X
0Y
1Z
0^
0`
1[
1Y
0Z
1a
1_
0[
0H
0G
0>
0?
0)
0(
#499980
0!
07
0O
0E
0P
#510000
1"
18
1Q
1R
0_
0a
0e
0k
#519210
1!
17
1O
1E
1x
0S
1U
1P
1^
0f
0l
0R
0g
1_
0F
0K
1G
0@
0;
1?
0*
1)
0%
#530000
0"
08
0Q
1R
0_
1a
1e
1k
#538440
0!
07
0O
0E
0P
#557670
1!
17
1O
1E
0x
1w
1S
1P
1b
1f
0h
1l
0R
0i
1g
1c
1F
0L
1K
1I
1@
0:
1;
1=
1*
1'
1%
0$
#576900
0!
07
0O
0E
0P
#590000
1"
18
1Q
1R
1_
0a
0e
0k
#596130
1!
17
1O
1E
1x
0S
0U
1V
1P
0W
0X
1`
0b
1d
0f
1h
0j
0l
0Y
1Z
0_
1k
1i
0g
0c
1[
0F
0M
1L
0K
1J
0I
1H
0@
09
1:
0;
1<
0=
1>
0*
1(
0'
1&
0%
1$
0#
#610000
0"
08
0Q
0R
1_
1a
1e
0k
#615360
0!
07
0O
0E
0P
#634590
1!
17
1O
1E
0x
0w
0v
0u
1t
0[
1Y
0Z
1W
1X
1S
0V
1P
0W
0Y
1[
0^
1b
0d
1f
0h
1j
1R
0a
1k
0i
1g
1c
1M
0L
1K
0J
1I
0G
19
0:
1;
0<
1=
0?
0)
1'
0&
1%
0$
1#
#653820
0!
07
0O
0E
0P
#660000
1"
18
1Q
0R
0_
1a
0e
0k
#673050
1!
17
1O
1E
1x
0S
1U
1P
0`
1d
0f
1h
0j
1R
1_
1k
1i
0g
0M
1L
0K
1J
0H
09
1:
0;
1<
0>
0(
1&
0%
1$
0#
#680000
0"
08
0Q
0R
0_
0a
1e
0k
#692280
0!
07
0O
0E
0P
#711510
1!
17
1O
1E
0x
1w
1S
1P
0b
1f
0h
1j
1R
1_
1a
0e
1k
0i
1g
0c
0o
1M
0L
1K
0I
19
0:
1;
0=
0'
1%
0$
1#
#730740
0!
07
0O
0E
0P
#740000
1"
18
1Q
0R
0_
0a
1e
0k
#749970
1!
17
1O
1E
1x
0S
0U
1V
1P
1W
0d
1h
0j
1R
1_
1a
1k
1i
0M
1L
0J
09
1:
0<
0&
1$
0#
#760000
0"
08
0Q
0R
0_
0a
0e
0k
#769200
0!
07
0O
0E
0P
#788430
1!
17
1O
1E
0x
0w
1v
0W
0X
1S
0V
1P
1W
1X
1Y
0f
1j
0Y
1R
1_
1a
1e
1k
0g
1M
0K
19
0;
0%
1#
#807660
0!
07
0O
0E
0P
#820000
1"
18
1Q
0R
0_
0a
0e
0k
#826890
1!
17
1O
1E
1x
0S
1U
1P
0h
0i
0L
0:
0$
#840000
0"
08
0Q
1R
1_
1a
1e
1k
#846120
0!
07
0O
0E
0P
#860000
1"
18
1Q
0R
0_
0a
0e
0k
#865350
1!
17
1O
1E
0x
1w
1S
1P
0j
1R
1_
1a
1e
1k
0n
1p
0M
09
0#
#880000
0"
08
0Q
0R
0_
0a
0e
0k
#884580
0!
07
0O
0E
0P
#903810
1!
17
1O
1E
1x
0S
0U
1V
1P
0W
0X
1Y
#923040
0!
07
0O
0E
0P
#942270
1!
17
1O
1E
0x
0w
0v
1u
0Y
1Z
1W
1X
1\
1S
0V
1P
0W
1Y
0Z
0[
1[
#961500
0!
07
0O
0E
1m
1s
0P
0{
0N
0A
0+
#980730
1!
17
1O
1E
1x
0m
0S
1U
1]
1P
0z
0x
0u
0t
0[
0Y
0\
1q
1S
0U
0]
1z
1r
0y
0s
1{
1N
1A
1+
#999960
0!
07
0O
0E
0r
1y
0P
